#C code | i=30.000000 deg | E0=6.400000 | dE=0.010000 | r_min=10.000000 | r_max=30.000000 
# energy | intensity 
3	0
3.01	0
3.02	0
3.03	0
3.04	0
3.05	0
3.06	0
3.07	0
3.08	0
3.09	0
3.1	0
3.11	0
3.12	0
3.13	0
3.14	0
3.15	0
3.16	0
3.17	0
3.18	0
3.19	0
3.2	0
3.21	0
3.22	0
3.23	0
3.24	0
3.25	0
3.26	0
3.27	0
3.28	0
3.29	0
3.3	0
3.31	0
3.32	0
3.33	0
3.34	0
3.35	0
3.36	0
3.37	0
3.38	0
3.39	0
3.4	0
3.41	0
3.42	0
3.43	0
3.44	0
3.45	0
3.46	0
3.47	0
3.48	0
3.49	0
3.5	0
3.51	0
3.52	0
3.53	0
3.54	0
3.55	0
3.56	0
3.57	0
3.58	0
3.59	0
3.6	0
3.61	0
3.62	0
3.63	0
3.64	0
3.65	0
3.66	0
3.67	0
3.68	0
3.69	0
3.7	0
3.71	0
3.72	0
3.73	0
3.74	0
3.75	0
3.76	0
3.77	0
3.78	0
3.79	0
3.8	0
3.81	0
3.82	0
3.83	0
3.84	0
3.85	0
3.86	0
3.87	0
3.88	0
3.89	0
3.9	0
3.91	0
3.92	0
3.93	0
3.94	0
3.95	0
3.96	0
3.97	0
3.98	0
3.99	0
4	0
4.01	0
4.02	0
4.03	0
4.04	0
4.05	0
4.06	0
4.07	0
4.08	0
4.09	0
4.1	0
4.11	0
4.12	0
4.13	0
4.14	0
4.15	0
4.16	0
4.17	0
4.18	0
4.19	0
4.2	0
4.21	0
4.22	0
4.23	0
4.24	0
4.25	0
4.26	0
4.27	0
4.28	0
4.29	0
4.3	0
4.31	0
4.32	0
4.33	0
4.34	0
4.35	0
4.36	0
4.37	0
4.38	0
4.39	0
4.4	0
4.41	0
4.42	0
4.43	0
4.44	0
4.45	0
4.46	0
4.47	0
4.48	0
4.49	0
4.5	0
4.51	0
4.52	0
4.53	0
4.54	0
4.55	0
4.56	0
4.57	0
4.58	0
4.59	0
4.6	0
4.61	0
4.62	0
4.63	0
4.64	0
4.65	0
4.66	0
4.67	0
4.68	0
4.69	0
4.7	0
4.71	0
4.72	0
4.73	0
4.74	0
4.75	0
4.76	0
4.77	0
4.78	0
4.79	0
4.8	0
4.81	0
4.82	0
4.83	0
4.84	0
4.85	0
4.86	0
4.87	0
4.88	0
4.89	0
4.9	3.25818
4.91	6.72585
4.92	9.50078
4.93	10.8082
4.94	12.6084
4.95	14.3047
4.96	15.6987
4.97	16.9457
4.98	18.4935
4.99	19.347
5	20.8652
5.01	22.4084
5.02	23.2188
5.03	24.645
5.04	25.5998
5.05	27.0739
5.06	28.0102
5.07	29.2752
5.08	30.6522
5.09	31.7902
5.1	33.5963
5.11	33.3338
5.12	35.5218
5.13	37.3876
5.14	37.3799
5.15	39.2431
5.16	40.6429
5.17	41.7432
5.18	42.483
5.19	44.3179
5.2	46.0416
5.21	46.9489
5.22	48.3829
5.23	50.0735
5.24	51.0708
5.25	52.2067
5.26	54.387
5.27	55.2739
5.28	57.0003
5.29	59.1522
5.3	59.3219
5.31	61.8282
5.32	62.9443
5.33	65.6113
5.34	65.4005
5.35	68.4883
5.36	69.6659
5.37	72.3724
5.38	72.5155
5.39	75.5712
5.4	76.6602
5.41	79.2623
5.42	80.9099
5.43	82.2188
5.44	85.1414
5.45	86.3546
5.46	88.9718
5.47	91.1627
5.48	92.774
5.49	95.1849
5.5	97.9734
5.51	99.9285
5.52	102.709
5.53	104.379
5.54	107.303
5.55	110.272
5.56	111.707
5.57	115.748
5.58	117.61
5.59	120.319
5.6	112.487
5.61	103.767
5.62	98.5818
5.63	95.3204
5.64	92.245
5.65	90.636
5.66	88.9594
5.67	86.969
5.68	85.6644
5.69	84.7396
5.7	83.3632
5.71	82.6979
5.72	81.0361
5.73	80.3029
5.74	79.9029
5.75	78.9724
5.76	78.4174
5.77	77.127
5.78	77.6948
5.79	76.2497
5.8	76.0837
5.81	75.0934
5.82	75.1951
5.83	74.8965
5.84	73.9779
5.85	73.5474
5.86	73.5802
5.87	73.158
5.88	72.9911
5.89	72.55
5.9	72.414
5.91	71.8125
5.92	72.2635
5.93	71.912
5.94	71.5382
5.95	71.7479
5.96	71.3208
5.97	71.1141
5.98	70.947
5.99	71.278
6	71.0676
6.01	70.586
6.02	70.6427
6.03	71.2084
6.04	70.4556
6.05	71.2576
6.06	70.7921
6.07	70.3589
6.08	70.5317
6.09	70.8244
6.1	71.1537
6.11	70.7504
6.12	70.8534
6.13	71.1887
6.14	71.4258
6.15	71.3437
6.16	71.7137
6.17	71.7494
6.18	71.8544
6.19	72.1294
6.2	72.4168
6.21	72.6979
6.22	72.7694
6.23	72.6624
6.24	73.1212
6.25	72.6187
6.26	73.407
6.27	73.5545
6.28	74.0669
6.29	73.8352
6.3	74.5198
6.31	74.7603
6.32	75.3607
6.33	75.3288
6.34	75.9291
6.35	76.3953
6.36	76.6746
6.37	76.6689
6.38	78.1124
6.39	77.743
6.4	78.5816
6.41	78.881
6.42	79.2472
6.43	79.948
6.44	80.6058
6.45	80.9465
6.46	81.4437
6.47	81.9485
6.48	82.7209
6.49	83.118
6.5	83.8505
6.51	84.8121
6.52	84.5319
6.53	86.3728
6.54	85.1729
6.55	87.4115
6.56	87.4816
6.57	88.5385
6.58	90.3081
6.59	88.8472
6.6	90.4055
6.61	91.6504
6.62	91.8997
6.63	92.8296
6.64	93.8875
6.65	94.9101
6.66	95.1636
6.67	96.9697
6.68	98.2221
6.69	97.3358
6.7	99.4673
6.71	101.084
6.72	100.733
6.73	102.48
6.74	103.483
6.75	105.076
6.76	105.97
6.77	108.058
6.78	108.869
6.79	109.876
6.8	110.52
6.81	113.921
6.82	113.835
6.83	116.486
6.84	117.656
6.85	120.88
6.86	120.628
6.87	124.016
6.88	126.487
6.89	127.882
6.9	130.596
6.91	132.989
6.92	136.395
6.93	138.979
6.94	142.096
6.95	146.193
6.96	150.605
6.97	153.996
6.98	160.855
6.99	166.089
7	173.206
7.01	182.066
7.02	195.144
7.03	219.486
7.04	238.355
7.05	233.414
7.06	227.267
7.07	221.802
7.08	214.967
7.09	210.692
7.1	204.977
7.11	200.174
7.12	194.155
7.13	188.616
7.14	184.36
7.15	178.747
7.16	173.071
7.17	169.107
7.18	163.082
7.19	159.311
7.2	152.918
7.21	149.712
7.22	143.293
7.23	138.786
7.24	134.37
7.25	129.104
7.26	123.707
7.27	119.773
7.28	112.584
7.29	109.201
7.3	102.455
7.31	98.0551
7.32	92.2688
7.33	85.4748
7.34	79.5798
7.35	73.4091
7.36	66.1131
7.37	58.4083
7.38	49.9504
7.39	38.8823
7.4	24.1362
7.41	1.63304
7.42	0
7.43	0
7.44	0
7.45	0
7.46	0
7.47	0
7.48	0
7.49	0
7.5	0
7.51	0
7.52	0
7.53	0
7.54	0
7.55	0
7.56	0
7.57	0
7.58	0
7.59	0
7.6	0
7.61	0
7.62	0
7.63	0
7.64	0
7.65	0
7.66	0
7.67	0
7.68	0
7.69	0
7.7	0
7.71	0
7.72	0
7.73	0
7.74	0
7.75	0
7.76	0
7.77	0
7.78	0
7.79	0
7.8	0
7.81	0
7.82	0
7.83	0
7.84	0
7.85	0
7.86	0
7.87	0
7.88	0
7.89	0
7.9	0
7.91	0
7.92	0
7.93	0
7.94	0
7.95	0
7.96	0
7.97	0
7.98	0
7.99	0
8	0
